R Workshop – Session #03
…
``` r
pacman::p_load(dplyr, ggplot2)

dbcombine01 <- players18 %>%
  distinct(name)

dbcombine02 <- players04 %>%
  filter(name %in% dbcombine01$name)
```
]

.panel[.panel-name[output: `dbcombine`]

```
## # A tibble: 570 × 45
##    name      position position_long team    x_p assists bonus   bps clean_sheets
##    <chr>     <chr>    <chr>         <chr> <dbl>   <dbl> <dbl> <dbl>        <dbl>
##  1 Benjamin… DEF      02def         Arse…   3.1       0     0     8            0
##  2 Benjamin… DEF      02def         Arse…   4.5       0     1    26            1
##  3 Benjamin… DEF      02def         Arse…   3.5       0     0    18            0
##  4 Benjamin… DEF      02def         Arse…   2.8       0     0    19            0
##  5 Benjamin… DEF      02def         Arse…   4.7       0     1    28            1
##  6 Benjamin… DEF      02def         Arse…   4         1     0    19            0
##  7 Benjamin… DEF      02def         Arse…   8.8       0     2    40            1
##  8 Benjamin… DEF      02def         Arse…   8.5       0     3    31            1
##  9 Benjamin… DEF      02def         Arse…   8.2       0     0     8            0
## 10 Benjamin… DEF      02def         Arse…   6         0     0    24            1
## # ℹ 560 more rows
## # ℹ 36 more variables: creativity <dbl>, element <dbl>, expected_assists <dbl>,
## #   expected_goal_involvements <dbl>, expected_goals <dbl>,
## #   expected_goals_conceded <dbl>, fixture <dbl>, goals_conceded <dbl>,
## #   goals_scored <dbl>, ict_index <dbl>, influence <dbl>, kickoff_time <dttm>,
## #   minutes <dbl>, opponent_team <dbl>, opponent_long <chr>,
## #   opponent_short <chr>, own_goals <dbl>, penalties_missed <dbl>, …
```
…
